…
There are very few groups, but some with only a few temperature points. 


```r
temp_num <- df %>% 
  group_by(`Data contributor`) %>%
  filter(!(is.na(`Air temperature (°F)`))) %>%
  summarise(num = n_distinct(`Air temperature (°F)`)) %>%
  arrange(num)
temp_num
```

```
## # A tibble: 38 x 2
##    `Data contributor`    num
##    <chr>               <int>
##  1 Kazuyo Tsuzuki          1
##  2 Kwok Alison             3
##  3 Pustayova, Hana         4
##  4 "Tham K. W. "           7
##  5 Michael Adebamowo      21
##  6 Hyojin Kim             40
##  7 Shin-ichi Tanabe       40
##  8 Cornelia Moosmann      51
##  9 Chungyoon Chun         57
## 10 Pedersen and Toftum    64
## # ... with 28 more rows
```
…
```r
humidity <- df %>% 
  group_by(`Data contributor`) %>%
  filter(!is.na(`Relative humidity (%)`)) %>% 
  summarise(num = n_distinct(`Relative humidity (%)`)) %>%
  arrange(num)
```


```r
humidity
```

```
## # A tibble: 34 x 2
##    `Data contributor`    num
##    <chr>               <int>
##  1 Kazuyo Tsuzuki          1
##  2 Kwok Alison             3
##  3 "Tham K. W. "           7
##  4 Indraganti Madhavi     54
##  5 Shin-ichi Tanabe       56
##  6 Hyojin Kim             63
##  7 Michael Adebamowo      68
##  8 Pedersen and Toftum    73
##  9 Ramona Romero          73
## 10 Despoina Teli          96
## # ... with 24 more rows
```
…
Expected: 


```r
avg_sensation <- name33 %>% 
  mutate(rounded_humidity = round(`Relative humidity (%)`)) %>%
  group_by(rounded_humidity) %>%
  filter(!is.na(`Humidity sensation`)) %>% 
  summarise(sensation = mean(`Humidity sensation`))
avg_sensation
```

```
## # A tibble: 37 x 2
##    rounded_humidity sensation
##               <dbl>     <dbl>
##  1               39     0.75 
##  2               40     1    
##  3               42     0.5  
##  4               44     1    
##  5               45     1    
##  6               46     0.929
##  7               47     2    
##  8               48     0.684
##  9               49     1.5  
## 10               50     0.647
## # ... with 27 more rows
```
…
